…
``` r
(wdf_plot <- world_countries %>% 
        select(admin, pop_year, pop_est, geometry) %>% 
        st_as_sf(crs = st_crs(4326)))
```

    ## Simple feature collection with 242 features and 3 fields
    ## Geometry type: MULTIPOLYGON
    ## Dimension:     XY
    ## Bounding box:  xmin: -180 ymin: -89.99893 xmax: 180 ymax: 83.59961
    ## Geodetic CRS:  WGS 84
    ## # A tibble: 242 × 4
    ##    admin                          pop_year  pop_est                                      geometry
    ##  * <chr>                             <int>    <dbl>                            <MULTIPOLYGON [°]>
    ##  1 Zimbabwe                           2019 14645468 (((31.28789 -22.40205, 31.19727 -22.34492, 3…
    ##  2 Zambia                             2019 17861030 (((30.39609 -15.64307, 30.25068 -15.64346, 2…
    ##  3 Yemen                              2019 29161922 (((53.08564 16.64839, 52.58145 16.47036, 52.…
    ##  4 Vietnam                            2019 96462106 (((104.064 10.39082, 104.083 10.34111, 104.0…
    ##  5 Venezuela                          2019 28515829 (((-60.82119 9.138379, -60.94141 9.105566, -…
    ##  6 Vatican                            2019      825 (((12.43916 41.89839, 12.43057 41.89756, 12.…
    ##  7 Vanuatu                            2019   299882 (((166.7458 -14.82686, 166.8102 -15.15742, 1…
    ##  8 Uzbekistan                         2019 33580650 (((70.94678 42.24868, 70.979 42.26655, 71.03…
    ##  9 Uruguay                            2019  3461734 (((-53.37061 -33.74219, -53.41958 -33.7792, …
    ## 10 Federated States of Micronesia     2019   113815 (((162.9832 5.325732, 162.9935 5.277246, 162…
    ## # ℹ 232 more rows
…
Filter `gapminder` for latest year

``` r
(gapminder_latest <- gapminder %>% 
    slice_max(year) %>% 
    select(country, lifeExp))
```

    ## # A tibble: 142 × 2
    ##    country     lifeExp
    ##    <fct>         <dbl>
    ##  1 Afghanistan    43.8
    ##  2 Albania        76.4
    ##  3 Algeria        72.3
    ##  4 Angola         42.7
    ##  5 Argentina      75.3
    ##  6 Australia      81.2
    ##  7 Austria        79.8
    ##  8 Bahrain        75.6
    ##  9 Bangladesh     64.1
    ## 10 Belgium        79.4
    ## # ℹ 132 more rows

Add iso_a3 codes to gapminder_latest

``` r
gapminder_latest %>% 
    mutate(iso_a3 = countrycode::countrycode(country,
                                             origin = 'country.name',
                                             destination = 'iso3c'))
```

    ## # A tibble: 142 × 3
    ##    country     lifeExp iso_a3
    ##    <fct>         <dbl> <chr> 
    ##  1 Afghanistan    43.8 AFG   
    ##  2 Albania        76.4 ALB   
    ##  3 Algeria        72.3 DZA   
    ##  4 Angola         42.7 AGO   
    ##  5 Argentina      75.3 ARG   
    ##  6 Australia      81.2 AUS   
    ##  7 Austria        79.8 AUT   
    ##  8 Bahrain        75.6 BHR   
    ##  9 Bangladesh     64.1 BGD   
    ## 10 Belgium        79.4 BEL   
    ## # ℹ 132 more rows

Add life expectancy to polygons

``` r
(wdf_africa <- gapminder_latest %>% 
    mutate(iso_a3 = countrycode::countrycode(country,
                                             origin = 'country.name',
                                             destination = 'iso3c')) %>% 
    right_join(africa_sf,
               by = join_by(iso_a3)) %>% 
    select(iso_a3, lifeExp, country, name, geometry))
```

    ## # A tibble: 54 × 5
    ##    iso_a3 lifeExp country                  name                                          geometry
    ##    <chr>    <dbl> <fct>                    <chr>                               <MULTIPOLYGON [°]>
    ##  1 DZA       72.3 Algeria                  Algeria              (((8.576563 36.93721, 8.597656 3…
    ##  2 AGO       42.7 Angola                   Angola               (((13.07275 -4.634766, 13.05732 …
    ##  3 BEN       56.7 Benin                    Benin                (((1.622656 6.216797, 1.610938 6…
    ##  4 BWA       50.7 Botswana                 Botswana             (((25.25879 -17.79355, 25.23906 …
    ##  5 BFA       52.3 Burkina Faso             Burkina Faso         (((0.9004883 10.99326, 0.6429688…
    ##  6 BDI       49.6 Burundi                  Burundi              (((30.55361 -2.400098, 30.53369 …
    ##  7 CMR       50.4 Cameroon                 Cameroon             (((8.555859 4.755225, 8.585156 4…
    ##  8 CAF       44.7 Central African Republic Central African Rep. (((24.14736 8.665625, 24.19482 8…
    ##  9 TCD       50.7 Chad                     Chad                 (((23.98027 19.49663, 23.98066 1…
    ## 10 COM       65.2 Comoros                  Comoros              (((44.47637 -12.08154, 44.52676 …
    ## # ℹ 44 more rows
…
