…
## Extract the lines object

``` r
city_motorways_sf <- osm_motorways_query$osm_lines

city_motorways_sf %>% tibble()
```

    ## # A tibble: 6,353 × 472
    ##    osm_id   name        access access_control `addr:street:en` `addr:street:zh` alt_name
    ##    <chr>    <chr>       <chr>  <chr>          <chr>            <chr>            <chr>   
    ##  1 22732384 香港仔隧道 Aber… <NA>   <NA>           <NA>             <NA>             堅拿道天橋 C…
    ##  2 23143626 東區海底隧道 Eas… <NA>   <NA>           <NA>             <NA>             <NA>    
    ##  3 23298496 香港仔隧道 Aber… <NA>   <NA>           <NA>             <NA>             <NA>    
    ##  4 23349951 將軍澳隧道 Tseu… <NA>   <NA>           <NA>             <NA>             將軍澳隧道公路…
    ##  5 23349952 將軍澳隧道公路 Ts… <NA>   <NA>           <NA>             <NA>             <NA>    
    ##  6 23358342 長青隧道 Cheun… <NA>   <NA>           <NA>             <NA>             <NA>    
    ##  7 23368089 環保大道 Wan P… <NA>   full           <NA>             <NA>             <NA>    
    ##  8 23368093 觀塘繞道 Kwun … <NA>   <NA>           <NA>             <NA>             <NA>    
    ##  9 23993375 大老山隧道 Tate… <NA>   <NA>           <NA>             <NA>             <NA>    
    ## 10 23993534 大老山公路 Tate… <NA>   <NA>           <NA>             <NA>             <NA>    
    ## # ℹ 6,343 more rows
    ## # ℹ 465 more variables: `alt_name:en` <chr>, `alt_name:yue` <chr>, `alt_name:zh` <chr>,
    ## #   `alt_name:zh-Hans` <chr>, `alt_name:zh-Hant` <chr>, bicycle <chr>, brand <chr>,
    ## #   `brand:en` <chr>, `brand:zh` <chr>, bridge <chr>, `bridge:alt_name` <chr>,
    ## #   `bridge:alt_name:en` <chr>, `bridge:alt_name:zh` <chr>, `bridge:insulation` <chr>,
    ## #   `bridge:loc_name:zh` <chr>, `bridge:name` <chr>, `bridge:name:en` <chr>,
    ## #   `bridge:name:zh` <chr>, `bridge:name:zh-Hans` <chr>, `bridge:ref` <chr>, …
…
``` r
(city_motorways_sf1 <- city_motorways_sf %>% 
    mutate(surface = replace_na(surface, "NA")) %>% 
    tibble())
```

    ## # A tibble: 6,353 × 472
    ##    osm_id   name        access access_control `addr:street:en` `addr:street:zh` alt_name
    ##    <chr>    <chr>       <chr>  <chr>          <chr>            <chr>            <chr>   
    ##  1 22732384 香港仔隧道 Aber… <NA>   <NA>           <NA>             <NA>             堅拿道天橋 C…
    ##  2 23143626 東區海底隧道 Eas… <NA>   <NA>           <NA>             <NA>             <NA>    
    ##  3 23298496 香港仔隧道 Aber… <NA>   <NA>           <NA>             <NA>             <NA>    
    ##  4 23349951 將軍澳隧道 Tseu… <NA>   <NA>           <NA>             <NA>             將軍澳隧道公路…
    ##  5 23349952 將軍澳隧道公路 Ts… <NA>   <NA>           <NA>             <NA>             <NA>    
    ##  6 23358342 長青隧道 Cheun… <NA>   <NA>           <NA>             <NA>             <NA>    
    ##  7 23368089 環保大道 Wan P… <NA>   full           <NA>             <NA>             <NA>    
    ##  8 23368093 觀塘繞道 Kwun … <NA>   <NA>           <NA>             <NA>             <NA>    
    ##  9 23993375 大老山隧道 Tate… <NA>   <NA>           <NA>             <NA>             <NA>    
    ## 10 23993534 大老山公路 Tate… <NA>   <NA>           <NA>             <NA>             <NA>    
    ## # ℹ 6,343 more rows
    ## # ℹ 465 more variables: `alt_name:en` <chr>, `alt_name:yue` <chr>, `alt_name:zh` <chr>,
    ## #   `alt_name:zh-Hans` <chr>, `alt_name:zh-Hant` <chr>, bicycle <chr>, brand <chr>,
    ## #   `brand:en` <chr>, `brand:zh` <chr>, bridge <chr>, `bridge:alt_name` <chr>,
    ## #   `bridge:alt_name:en` <chr>, `bridge:alt_name:zh` <chr>, `bridge:insulation` <chr>,
    ## #   `bridge:loc_name:zh` <chr>, `bridge:name` <chr>, `bridge:name:en` <chr>,
    ## #   `bridge:name:zh` <chr>, `bridge:name:zh-Hans` <chr>, `bridge:ref` <chr>, …
…
