…
Get world city data: `maps::world.cities` is smaller than
`rnaturalearth` cities

``` r
maps::world.cities %>% tibble()
```

    ## # A tibble: 43,645 × 6
    ##    name               country.etc    pop   lat  long capital
    ##    <chr>              <chr>        <int> <dbl> <dbl>   <int>
    ##  1 'Abasan al-Jadidah Palestine     5629 31.3   34.3       0
    ##  2 'Abasan al-Kabirah Palestine    18999 31.3   34.4       0
    ##  3 'Abdul Hakim       Pakistan     47788 30.6   72.1       0
    ##  4 'Abdullah-as-Salam Kuwait       21817 29.4   48.0       0
    ##  5 'Abud              Palestine     2456 32.0   35.1       0
    ##  6 'Abwein            Palestine     3434 32.0   35.2       0
    ##  7 'Adadlay           Somalia       9198  9.77  44.6       0
    ##  8 'Adale             Somalia       5492  2.75  46.3       0
    ##  9 'Afak              Iraq         22706 32.1   45.3       0
    ## 10 'Afif              Saudi Arabia 41731 23.9   42.9       0
    ## # ℹ 43,635 more rows
…
